<?xml version="1.0" encoding="utf-8"?>
<!DOCTYPE eagle SYSTEM "eagle.dtd">
<eagle version="8.2.1">
<drawing>
<settings>
<setting alwaysvectorfont="no"/>
<setting verticaltext="up"/>
</settings>
<grid distance="50" unitdist="mil" unit="mil" style="lines" multiple="1" display="no" altdistance="5" altunitdist="mil" altunit="mil"/>
<layers>
<layer number="1" name="Top" color="4" fill="1" visible="yes" active="yes"/>
<layer number="2" name="Route2" color="1" fill="3" visible="no" active="no"/>
<layer number="15" name="Route15" color="4" fill="6" visible="no" active="no"/>
<layer number="16" name="Bottom" color="1" fill="1" visible="yes" active="yes"/>
<layer number="17" name="Pads" color="2" fill="1" visible="yes" active="yes"/>
<layer number="18" name="Vias" color="2" fill="1" visible="yes" active="yes"/>
<layer number="19" name="Unrouted" color="6" fill="1" visible="yes" active="yes"/>
<layer number="20" name="Dimension" color="15" fill="1" visible="yes" active="yes"/>
<layer number="21" name="tPlace" color="7" fill="1" visible="yes" active="yes"/>
<layer number="22" name="bPlace" color="7" fill="1" visible="yes" active="yes"/>
<layer number="23" name="tOrigins" color="15" fill="1" visible="yes" active="yes"/>
<layer number="24" name="bOrigins" color="15" fill="1" visible="yes" active="yes"/>
<layer number="25" name="tNames" color="7" fill="1" visible="yes" active="yes"/>
<layer number="26" name="bNames" color="7" fill="1" visible="yes" active="yes"/>
<layer number="27" name="tValues" color="7" fill="1" visible="yes" active="yes"/>
<layer number="28" name="bValues" color="7" fill="1" visible="yes" active="yes"/>
<layer number="29" name="tStop" color="7" fill="3" visible="no" active="yes"/>
<layer number="30" name="bStop" color="7" fill="6" visible="no" active="yes"/>
<layer number="31" name="tCream" color="7" fill="4" visible="no" active="yes"/>
<layer number="32" name="bCream" color="7" fill="5" visible="no" active="yes"/>
<layer number="33" name="tFinish" color="6" fill="3" visible="no" active="yes"/>
<layer number="34" name="bFinish" color="6" fill="6" visible="no" active="yes"/>
<layer number="35" name="tGlue" color="7" fill="4" visible="no" active="yes"/>
<layer number="36" name="bGlue" color="7" fill="5" visible="no" active="yes"/>
<layer number="37" name="tTest" color="7" fill="1" visible="no" active="yes"/>
<layer number="38" name="bTest" color="7" fill="1" visible="no" active="yes"/>
<layer number="39" name="tKeepout" color="4" fill="11" visible="yes" active="yes"/>
<layer number="40" name="bKeepout" color="1" fill="11" visible="yes" active="yes"/>
<layer number="41" name="tRestrict" color="4" fill="10" visible="yes" active="yes"/>
<layer number="42" name="bRestrict" color="1" fill="10" visible="yes" active="yes"/>
<layer number="43" name="vRestrict" color="2" fill="10" visible="yes" active="yes"/>
<layer number="44" name="Drills" color="7" fill="1" visible="no" active="yes"/>
<layer number="45" name="Holes" color="7" fill="1" visible="no" active="yes"/>
<layer number="46" name="Milling" color="3" fill="1" visible="no" active="yes"/>
<layer number="47" name="Measures" color="7" fill="1" visible="no" active="yes"/>
<layer number="48" name="Document" color="7" fill="1" visible="yes" active="yes"/>
<layer number="49" name="Reference" color="7" fill="1" visible="yes" active="yes"/>
<layer number="50" name="dxf" color="7" fill="1" visible="no" active="no"/>
<layer number="51" name="tDocu" color="7" fill="1" visible="yes" active="yes"/>
<layer number="52" name="bDocu" color="7" fill="1" visible="yes" active="yes"/>
<layer number="53" name="tGND_GNDA" color="7" fill="9" visible="no" active="no"/>
<layer number="54" name="bGND_GNDA" color="1" fill="9" visible="no" active="no"/>
<layer number="56" name="wert" color="7" fill="1" visible="no" active="no"/>
<layer number="57" name="tCAD" color="7" fill="1" visible="no" active="no"/>
<layer number="59" name="tCarbon" color="7" fill="1" visible="no" active="no"/>
<layer number="60" name="bCarbon" color="7" fill="1" visible="no" active="no"/>
<layer number="90" name="Modules" color="5" fill="1" visible="no" active="no"/>
<layer number="91" name="Nets" color="2" fill="1" visible="no" active="no"/>
<layer number="92" name="Busses" color="1" fill="1" visible="no" active="no"/>
<layer number="93" name="Pins" color="2" fill="1" visible="no" active="no"/>
<layer number="94" name="Symbols" color="4" fill="1" visible="no" active="no"/>
<layer number="95" name="Names" color="7" fill="1" visible="no" active="no"/>
<layer number="96" name="Values" color="7" fill="1" visible="no" active="no"/>
<layer number="97" name="Info" color="7" fill="1" visible="no" active="no"/>
<layer number="98" name="Guide" color="6" fill="1" visible="no" active="no"/>
<layer number="99" name="SpiceOrder" color="7" fill="1" visible="no" active="no"/>
<layer number="100" name="Muster" color="7" fill="1" visible="no" active="no"/>
<layer number="101" name="Patch_Top" color="12" fill="4" visible="no" active="yes"/>
<layer number="102" name="Vscore" color="7" fill="1" visible="no" active="yes"/>
<layer number="103" name="fp3" color="7" fill="1" visible="no" active="yes"/>
<layer number="104" name="Name" color="7" fill="1" visible="no" active="yes"/>
<layer number="105" name="Beschreib" color="9" fill="1" visible="no" active="yes"/>
<layer number="106" name="BGA-Top" color="4" fill="1" visible="no" active="yes"/>
<layer number="107" name="BD-Top" color="5" fill="1" visible="no" active="yes"/>
<layer number="108" name="fp8" color="7" fill="1" visible="no" active="yes"/>
<layer number="109" name="fp9" color="7" fill="1" visible="no" active="yes"/>
<layer number="110" name="fp0" color="7" fill="1" visible="no" active="yes"/>
<layer number="111" name="LPC17xx" color="7" fill="1" visible="no" active="yes"/>
<layer number="112" name="tSilk" color="7" fill="1" visible="no" active="yes"/>
<layer number="113" name="ReferenceLS" color="7" fill="1" visible="no" active="no"/>
<layer number="114" name="Badge_Outline" color="7" fill="1" visible="yes" active="yes"/>
<layer number="115" name="ReferenceISLANDS" color="7" fill="1" visible="yes" active="yes"/>
<layer number="116" name="Patch_BOT" color="9" fill="4" visible="no" active="yes"/>
<layer number="118" name="Rect_Pads" color="7" fill="1" visible="no" active="no"/>
<layer number="121" name="_tsilk" color="7" fill="1" visible="no" active="yes"/>
<layer number="122" name="_bsilk" color="7" fill="1" visible="no" active="yes"/>
<layer number="123" name="tTestmark" color="7" fill="1" visible="no" active="yes"/>
<layer number="124" name="bTestmark" color="7" fill="1" visible="no" active="yes"/>
<layer number="125" name="_tNames" color="7" fill="1" visible="no" active="yes"/>
<layer number="126" name="_bNames" color="7" fill="1" visible="no" active="yes"/>
<layer number="127" name="_tValues" color="7" fill="1" visible="no" active="yes"/>
<layer number="128" name="_bValues" color="7" fill="1" visible="no" active="yes"/>
<layer number="129" name="Mask" color="7" fill="1" visible="yes" active="yes"/>
<layer number="131" name="tAdjust" color="7" fill="1" visible="no" active="yes"/>
<layer number="132" name="bAdjust" color="7" fill="1" visible="no" active="yes"/>
<layer number="144" name="Drill_legend" color="7" fill="1" visible="no" active="yes"/>
<layer number="150" name="Notes" color="7" fill="1" visible="no" active="yes"/>
<layer number="151" name="HeatSink" color="7" fill="1" visible="no" active="yes"/>
<layer number="152" name="_bDocu" color="7" fill="1" visible="no" active="yes"/>
<layer number="153" name="FabDoc1" color="6" fill="1" visible="no" active="no"/>
<layer number="154" name="FabDoc2" color="2" fill="1" visible="no" active="no"/>
<layer number="155" name="FabDoc3" color="7" fill="15" visible="no" active="no"/>
<layer number="199" name="Contour" color="7" fill="1" visible="no" active="yes"/>
<layer number="200" name="200bmp" color="1" fill="10" visible="no" active="yes"/>
<layer number="201" name="201bmp" color="2" fill="1" visible="no" active="no"/>
<layer number="202" name="202bmp" color="3" fill="1" visible="no" active="no"/>
<layer number="203" name="203bmp" color="4" fill="10" visible="no" active="yes"/>
<layer number="204" name="204bmp" color="5" fill="10" visible="no" active="yes"/>
<layer number="205" name="205bmp" color="6" fill="10" visible="no" active="yes"/>
<layer number="206" name="206bmp" color="7" fill="10" visible="no" active="yes"/>
<layer number="207" name="207bmp" color="8" fill="10" visible="no" active="yes"/>
<layer number="208" name="208bmp" color="9" fill="10" visible="no" active="yes"/>
<layer number="209" name="209bmp" color="7" fill="1" visible="no" active="yes"/>
<layer number="210" name="210bmp" color="7" fill="1" visible="no" active="yes"/>
<layer number="211" name="211bmp" color="7" fill="1" visible="no" active="yes"/>
<layer number="212" name="212bmp" color="7" fill="1" visible="no" active="yes"/>
<layer number="213" name="213bmp" color="7" fill="1" visible="no" active="yes"/>
<layer number="214" name="214bmp" color="7" fill="1" visible="no" active="yes"/>
<layer number="215" name="215bmp" color="7" fill="1" visible="no" active="yes"/>
<layer number="216" name="216bmp" color="7" fill="1" visible="no" active="yes"/>
<layer number="217" name="217bmp" color="18" fill="1" visible="no" active="no"/>
<layer number="218" name="218bmp" color="19" fill="1" visible="no" active="no"/>
<layer number="219" name="219bmp" color="20" fill="1" visible="no" active="no"/>
<layer number="220" name="220bmp" color="21" fill="1" visible="no" active="no"/>
<layer number="221" name="221bmp" color="22" fill="1" visible="no" active="no"/>
<layer number="222" name="222bmp" color="23" fill="1" visible="no" active="no"/>
<layer number="223" name="223bmp" color="24" fill="1" visible="no" active="no"/>
<layer number="224" name="224bmp" color="25" fill="1" visible="no" active="no"/>
<layer number="225" name="225bmp" color="7" fill="1" visible="yes" active="yes"/>
<layer number="226" name="226bmp" color="7" fill="1" visible="yes" active="yes"/>
<layer number="227" name="227bmp" color="7" fill="1" visible="yes" active="yes"/>
<layer number="228" name="228bmp" color="7" fill="1" visible="yes" active="yes"/>
<layer number="229" name="229bmp" color="7" fill="1" visible="yes" active="yes"/>
<layer number="230" name="230bmp" color="7" fill="1" visible="yes" active="yes"/>
<layer number="231" name="Eagle3D_PG1" color="7" fill="1" visible="no" active="no"/>
<layer number="232" name="Eagle3D_PG2" color="7" fill="1" visible="no" active="no"/>
<layer number="233" name="Eagle3D_PG3" color="7" fill="1" visible="no" active="no"/>
<layer number="248" name="Housing" color="7" fill="1" visible="no" active="yes"/>
<layer number="249" name="Edge" color="7" fill="1" visible="no" active="yes"/>
<layer number="250" name="Descript" color="7" fill="1" visible="no" active="no"/>
<layer number="251" name="SMDround" color="7" fill="1" visible="no" active="no"/>
<layer number="254" name="cooling" color="7" fill="1" visible="no" active="yes"/>
<layer number="255" name="routoute" color="7" fill="1" visible="yes" active="yes"/>
</layers>
<board>
<plain>
<wire x1="29.21" y1="0" x2="50.78" y2="0" width="0" layer="20"/>
<wire x1="50.78" y1="0" x2="50.78" y2="99.949" width="0" layer="20"/>
<wire x1="50.78" y1="99.949" x2="29.21" y2="99.949" width="0" layer="20"/>
<wire x1="29.21" y1="99.949" x2="29.21" y2="0" width="0" layer="20"/>
</plain>
<libraries>
<library name="adafruit">
<packages>
<package name="SO28W">
<description>&lt;B&gt;28-Lead Plastic Small Outline (SO) &lt;/B&gt; Wide, 300 mil Body (SOIC)&lt;/B&gt;&lt;p&gt;
Source: http://ww1.microchip.com/downloads/en/devicedoc/39632c.pdf</description>
<wire x1="-8.1788" y1="-3.7132" x2="9.4742" y2="-3.7132" width="0.1524" layer="21"/>
<wire x1="9.4742" y1="-3.7132" x2="9.4742" y2="3.7132" width="0.1524" layer="21"/>
<wire x1="9.4742" y1="3.7132" x2="-8.1788" y2="3.7132" width="0.1524" layer="21"/>
<wire x1="-8.1788" y1="3.7132" x2="-8.1788" y2="-3.7132" width="0.1524" layer="21"/>
<circle x="-7.239" y="-3.1496" radius="0.5334" width="0.1524" layer="21"/>
<smd name="1" x="-7.62" y="-4.78" dx="0.762" dy="1.27" layer="1"/>
<smd name="2" x="-6.35" y="-4.78" dx="0.762" dy="1.27" layer="1"/>
<smd name="3" x="-5.08" y="-4.78" dx="0.762" dy="1.27" layer="1"/>
<smd name="4" x="-3.81" y="-4.78" dx="0.762" dy="1.27" layer="1"/>
<smd name="5" x="-2.54" y="-4.78" dx="0.762" dy="1.27" layer="1"/>
<smd name="6" x="-1.27" y="-4.78" dx="0.762" dy="1.27" layer="1"/>
<smd name="7" x="0" y="-4.78" dx="0.762" dy="1.27" layer="1"/>
<smd name="8" x="1.27" y="-4.78" dx="0.762" dy="1.27" layer="1"/>
<smd name="9" x="2.54" y="-4.78" dx="0.762" dy="1.27" layer="1"/>
<smd name="10" x="3.81" y="-4.78" dx="0.762" dy="1.27" layer="1"/>
<smd name="20" x="2.54" y="4.78" dx="0.762" dy="1.27" layer="1"/>
<smd name="19" x="3.81" y="4.78" dx="0.762" dy="1.27" layer="1"/>
<smd name="18" x="5.08" y="4.78" dx="0.762" dy="1.27" layer="1"/>
<smd name="17" x="6.35" y="4.78" dx="0.762" dy="1.27" layer="1"/>
<smd name="16" x="7.62" y="4.78" dx="0.762" dy="1.27" layer="1"/>
<smd name="15" x="8.89" y="4.78" dx="0.762" dy="1.27" layer="1"/>
<smd name="14" x="8.89" y="-4.78" dx="0.762" dy="1.27" layer="1"/>
<smd name="13" x="7.62" y="-4.78" dx="0.762" dy="1.27" layer="1"/>
<smd name="12" x="6.35" y="-4.78" dx="0.762" dy="1.27" layer="1"/>
<smd name="11" x="5.08" y="-4.78" dx="0.762" dy="1.27" layer="1"/>
<smd name="21" x="1.27" y="4.78" dx="0.762" dy="1.27" layer="1"/>
<smd name="22" x="0" y="4.78" dx="0.762" dy="1.27" layer="1"/>
<smd name="23" x="-1.27" y="4.78" dx="0.762" dy="1.27" layer="1"/>
<smd name="24" x="-2.54" y="4.78" dx="0.762" dy="1.27" layer="1"/>
<smd name="25" x="-3.81" y="4.78" dx="0.762" dy="1.27" layer="1"/>
<smd name="26" x="-5.08" y="4.78" dx="0.762" dy="1.27" layer="1"/>
<smd name="27" x="-6.35" y="4.78" dx="0.762" dy="1.27" layer="1"/>
<smd name="28" x="-7.62" y="4.78" dx="0.762" dy="1.27" layer="1"/>
<text x="-8.509" y="-4.064" size="1.778" layer="25" ratio="10" rot="R90">&gt;NAME</text>
<text x="11.557" y="-4.064" size="1.778" layer="27" ratio="10" rot="R90">&gt;VALUE</text>
<rectangle x1="-7.874" y1="-5.2626" x2="-7.366" y2="-3.7386" layer="51"/>
<rectangle x1="-6.604" y1="-5.2626" x2="-6.096" y2="-3.7386" layer="51"/>
<rectangle x1="-5.334" y1="-5.2626" x2="-4.826" y2="-3.7386" layer="51"/>
<rectangle x1="-4.064" y1="-5.2626" x2="-3.556" y2="-3.7386" layer="51"/>
<rectangle x1="-2.794" y1="-5.2626" x2="-2.286" y2="-3.7386" layer="51"/>
<rectangle x1="-1.524" y1="-5.2626" x2="-1.016" y2="-3.7386" layer="51"/>
<rectangle x1="-0.254" y1="-5.2626" x2="0.254" y2="-3.7386" layer="51"/>
<rectangle x1="1.016" y1="-5.2626" x2="1.524" y2="-3.7386" layer="51"/>
<rectangle x1="2.286" y1="-5.2626" x2="2.794" y2="-3.7386" layer="51"/>
<rectangle x1="3.556" y1="-5.2626" x2="4.064" y2="-3.7386" layer="51"/>
<rectangle x1="4.826" y1="-5.2626" x2="5.334" y2="-3.7386" layer="51"/>
<rectangle x1="6.096" y1="-5.2626" x2="6.604" y2="-3.7386" layer="51"/>
<rectangle x1="7.366" y1="-5.2626" x2="7.874" y2="-3.7386" layer="51"/>
<rectangle x1="8.636" y1="-5.2626" x2="9.144" y2="-3.7386" layer="51"/>
<rectangle x1="8.636" y1="3.7386" x2="9.144" y2="5.2626" layer="51"/>
<rectangle x1="7.366" y1="3.7386" x2="7.874" y2="5.2626" layer="51"/>
<rectangle x1="6.096" y1="3.7386" x2="6.604" y2="5.2626" layer="51"/>
<rectangle x1="4.826" y1="3.7386" x2="5.334" y2="5.2626" layer="51"/>
<rectangle x1="3.556" y1="3.7386" x2="4.064" y2="5.2626" layer="51"/>
<rectangle x1="2.286" y1="3.7386" x2="2.794" y2="5.2626" layer="51"/>
<rectangle x1="1.016" y1="3.7386" x2="1.524" y2="5.2626" layer="51"/>
<rectangle x1="-0.254" y1="3.7386" x2="0.254" y2="5.2626" layer="51"/>
<rectangle x1="-1.524" y1="3.7386" x2="-1.016" y2="5.2626" layer="51"/>
<rectangle x1="-2.794" y1="3.7386" x2="-2.286" y2="5.2626" layer="51"/>
<rectangle x1="-4.064" y1="3.7386" x2="-3.556" y2="5.2626" layer="51"/>
<rectangle x1="-5.334" y1="3.7386" x2="-4.826" y2="5.2626" layer="51"/>
<rectangle x1="-6.604" y1="3.7386" x2="-6.096" y2="5.2626" layer="51"/>
<rectangle x1="-7.874" y1="3.7386" x2="-7.366" y2="5.2626" layer="51"/>
</package>
</packages>
</library>
<library name="SparkFun-Connectors">
<description>&lt;h3&gt;SparkFun Connectors&lt;/h3&gt;
This library contains electrically-functional connectors. 
&lt;br&gt;
&lt;br&gt;
We've spent an enormous amount of time creating and checking these footprints and parts, but it is &lt;b&gt; the end user's responsibility&lt;/b&gt; to ensure correctness and suitablity for a given componet or application. 
&lt;br&gt;
&lt;br&gt;If you enjoy using this library, please buy one of our products at &lt;a href=" www.sparkfun.com"&gt;SparkFun.com&lt;/a&gt;.
&lt;br&gt;
&lt;br&gt;
&lt;b&gt;Licensing:&lt;/b&gt; Creative Commons ShareAlike 4.0 International - https://creativecommons.org/licenses/by-sa/4.0/ 
&lt;br&gt;
&lt;br&gt;
You are welcome to use this library for commercial purposes. For attribution, we ask that when you begin to sell your device using our footprint, you email us with a link to the product being sold. We want bragging rights that we helped (in a very small part) to create your 8th world wonder. We would like the opportunity to feature your device on our homepage.</description>
<packages>
<package name="1X04">
<description>&lt;h3&gt;Plated Through Hole - 4 Pin&lt;/h3&gt;
&lt;p&gt;Specifications:
&lt;ul&gt;&lt;li&gt;Pin count:4&lt;/li&gt;
&lt;li&gt;Pin pitch:0.1"&lt;/li&gt;
&lt;/ul&gt;&lt;/p&gt;
&lt;p&gt;Example device(s):
&lt;ul&gt;&lt;li&gt;CONN_04&lt;/li&gt;
&lt;/ul&gt;&lt;/p&gt;</description>
<wire x1="6.985" y1="1.27" x2="8.255" y2="1.27" width="0.2032" layer="21"/>
<wire x1="8.255" y1="1.27" x2="8.89" y2="0.635" width="0.2032" layer="21"/>
<wire x1="8.89" y1="-0.635" x2="8.255" y2="-1.27" width="0.2032" layer="21"/>
<wire x1="3.81" y1="0.635" x2="4.445" y2="1.27" width="0.2032" layer="21"/>
<wire x1="4.445" y1="1.27" x2="5.715" y2="1.27" width="0.2032" layer="21"/>
<wire x1="5.715" y1="1.27" x2="6.35" y2="0.635" width="0.2032" layer="21"/>
<wire x1="6.35" y1="-0.635" x2="5.715" y2="-1.27" width="0.2032" layer="21"/>
<wire x1="5.715" y1="-1.27" x2="4.445" y2="-1.27" width="0.2032" layer="21"/>
<wire x1="4.445" y1="-1.27" x2="3.81" y2="-0.635" width="0.2032" layer="21"/>
<wire x1="6.985" y1="1.27" x2="6.35" y2="0.635" width="0.2032" layer="21"/>
<wire x1="6.35" y1="-0.635" x2="6.985" y2="-1.27" width="0.2032" layer="21"/>
<wire x1="8.255" y1="-1.27" x2="6.985" y2="-1.27" width="0.2032" layer="21"/>
<wire x1="-0.635" y1="1.27" x2="0.635" y2="1.27" width="0.2032" layer="21"/>
<wire x1="0.635" y1="1.27" x2="1.27" y2="0.635" width="0.2032" layer="21"/>
<wire x1="1.27" y1="-0.635" x2="0.635" y2="-1.27" width="0.2032" layer="21"/>
<wire x1="1.27" y1="0.635" x2="1.905" y2="1.27" width="0.2032" layer="21"/>
<wire x1="1.905" y1="1.27" x2="3.175" y2="1.27" width="0.2032" layer="21"/>
<wire x1="3.175" y1="1.27" x2="3.81" y2="0.635" width="0.2032" layer="21"/>
<wire x1="3.81" y1="-0.635" x2="3.175" y2="-1.27" width="0.2032" layer="21"/>
<wire x1="3.175" y1="-1.27" x2="1.905" y2="-1.27" width="0.2032" layer="21"/>
<wire x1="1.905" y1="-1.27" x2="1.27" y2="-0.635" width="0.2032" layer="21"/>
<wire x1="-1.27" y1="0.635" x2="-1.27" y2="-0.635" width="0.2032" layer="21"/>
<wire x1="-0.635" y1="1.27" x2="-1.27" y2="0.635" width="0.2032" layer="21"/>
<wire x1="-1.27" y1="-0.635" x2="-0.635" y2="-1.27" width="0.2032" layer="21"/>
<wire x1="0.635" y1="-1.27" x2="-0.635" y2="-1.27" width="0.2032" layer="21"/>
<wire x1="8.89" y1="0.635" x2="8.89" y2="-0.635" width="0.2032" layer="21"/>
<pad name="1" x="0" y="0" drill="1.016" diameter="1.8796" rot="R90"/>
<pad name="2" x="2.54" y="0" drill="1.016" diameter="1.8796" rot="R90"/>
<pad name="3" x="5.08" y="0" drill="1.016" diameter="1.8796" rot="R90"/>
<pad name="4" x="7.62" y="0" drill="1.016" diameter="1.8796" rot="R90"/>
<rectangle x1="7.366" y1="-0.254" x2="7.874" y2="0.254" layer="51"/>
<rectangle x1="4.826" y1="-0.254" x2="5.334" y2="0.254" layer="51"/>
<rectangle x1="2.286" y1="-0.254" x2="2.794" y2="0.254" layer="51"/>
<rectangle x1="-0.254" y1="-0.254" x2="0.254" y2="0.254" layer="51"/>
<text x="-1.27" y="1.397" size="0.6096" layer="25" font="vector" ratio="20">&gt;NAME</text>
<text x="-1.27" y="-2.032" size="0.6096" layer="27" font="vector" ratio="20">&gt;VALUE</text>
</package>
<package name="2X8">
<description>&lt;h3&gt;Plated Through Hole - 2x8&lt;/h3&gt;
&lt;p&gt;Specifications:
&lt;ul&gt;&lt;li&gt;Pin count:16&lt;/li&gt;
&lt;li&gt;Pin pitch:0.1"&lt;/li&gt;
&lt;/ul&gt;&lt;/p&gt;
&lt;p&gt;Example device(s):
&lt;ul&gt;&lt;li&gt;CONN_08x2&lt;/li&gt;
&lt;/ul&gt;&lt;/p&gt;</description>
<wire x1="0.635" y1="-1.27" x2="1.27" y2="-0.635" width="0.2032" layer="21"/>
<wire x1="1.27" y1="-0.635" x2="1.905" y2="-1.27" width="0.2032" layer="21"/>
<wire x1="3.175" y1="-1.27" x2="3.81" y2="-0.635" width="0.2032" layer="21"/>
<wire x1="3.81" y1="-0.635" x2="4.445" y2="-1.27" width="0.2032" layer="21"/>
<wire x1="5.715" y1="-1.27" x2="6.35" y2="-0.635" width="0.2032" layer="21"/>
<wire x1="6.35" y1="-0.635" x2="6.985" y2="-1.27" width="0.2032" layer="21"/>
<wire x1="8.255" y1="-1.27" x2="8.89" y2="-0.635" width="0.2032" layer="21"/>
<wire x1="8.89" y1="-0.635" x2="9.525" y2="-1.27" width="0.2032" layer="21"/>
<wire x1="10.795" y1="-1.27" x2="11.43" y2="-0.635" width="0.2032" layer="21"/>
<wire x1="11.43" y1="-0.635" x2="12.065" y2="-1.27" width="0.2032" layer="21"/>
<wire x1="13.335" y1="-1.27" x2="13.97" y2="-0.635" width="0.2032" layer="21"/>
<wire x1="-0.635" y1="3.81" x2="0.635" y2="3.81" width="0.2032" layer="21"/>
<wire x1="0.635" y1="3.81" x2="1.27" y2="3.175" width="0.2032" layer="21"/>
<wire x1="1.27" y1="3.175" x2="1.905" y2="3.81" width="0.2032" layer="21"/>
<wire x1="1.905" y1="3.81" x2="3.175" y2="3.81" width="0.2032" layer="21"/>
<wire x1="3.175" y1="3.81" x2="3.81" y2="3.175" width="0.2032" layer="21"/>
<wire x1="3.81" y1="3.175" x2="4.445" y2="3.81" width="0.2032" layer="21"/>
<wire x1="4.445" y1="3.81" x2="5.715" y2="3.81" width="0.2032" layer="21"/>
<wire x1="5.715" y1="3.81" x2="6.35" y2="3.175" width="0.2032" layer="21"/>
<wire x1="6.35" y1="3.175" x2="6.985" y2="3.81" width="0.2032" layer="21"/>
<wire x1="6.985" y1="3.81" x2="8.255" y2="3.81" width="0.2032" layer="21"/>
<wire x1="8.255" y1="3.81" x2="8.89" y2="3.175" width="0.2032" layer="21"/>
<wire x1="8.89" y1="3.175" x2="9.525" y2="3.81" width="0.2032" layer="21"/>
<wire x1="9.525" y1="3.81" x2="10.795" y2="3.81" width="0.2032" layer="21"/>
<wire x1="10.795" y1="3.81" x2="11.43" y2="3.175" width="0.2032" layer="21"/>
<wire x1="11.43" y1="3.175" x2="12.065" y2="3.81" width="0.2032" layer="21"/>
<wire x1="12.065" y1="3.81" x2="13.335" y2="3.81" width="0.2032" layer="21"/>
<wire x1="13.335" y1="3.81" x2="13.97" y2="3.175" width="0.2032" layer="21"/>
<wire x1="13.97" y1="3.175" x2="14.605" y2="3.81" width="0.2032" layer="21"/>
<wire x1="14.605" y1="3.81" x2="15.875" y2="3.81" width="0.2032" layer="21"/>
<wire x1="15.875" y1="3.81" x2="16.51" y2="3.175" width="0.2032" layer="21"/>
<wire x1="16.51" y1="3.175" x2="17.145" y2="3.81" width="0.2032" layer="21"/>
<wire x1="17.145" y1="3.81" x2="18.415" y2="3.81" width="0.2032" layer="21"/>
<wire x1="18.415" y1="3.81" x2="19.05" y2="3.175" width="0.2032" layer="21"/>
<wire x1="19.05" y1="-0.635" x2="18.415" y2="-1.27" width="0.2032" layer="21"/>
<wire x1="16.51" y1="-0.635" x2="17.145" y2="-1.27" width="0.2032" layer="21"/>
<wire x1="16.51" y1="-0.635" x2="15.875" y2="-1.27" width="0.2032" layer="21"/>
<wire x1="13.97" y1="-0.635" x2="14.605" y2="-1.27" width="0.2032" layer="21"/>
<wire x1="1.27" y1="3.175" x2="1.27" y2="-0.635" width="0.2032" layer="21"/>
<wire x1="3.81" y1="3.175" x2="3.81" y2="-0.635" width="0.2032" layer="21"/>
<wire x1="6.35" y1="3.175" x2="6.35" y2="-0.635" width="0.2032" layer="21"/>
<wire x1="8.89" y1="3.175" x2="8.89" y2="-0.635" width="0.2032" layer="21"/>
<wire x1="11.43" y1="3.175" x2="11.43" y2="-0.635" width="0.2032" layer="21"/>
<wire x1="13.97" y1="3.175" x2="13.97" y2="-0.635" width="0.2032" layer="21"/>
<wire x1="16.51" y1="3.175" x2="16.51" y2="-0.635" width="0.2032" layer="21"/>
<wire x1="19.05" y1="3.175" x2="19.05" y2="-0.635" width="0.2032" layer="21"/>
<wire x1="17.145" y1="-1.27" x2="18.415" y2="-1.27" width="0.2032" layer="21"/>
<wire x1="14.605" y1="-1.27" x2="15.875" y2="-1.27" width="0.2032" layer="21"/>
<wire x1="12.065" y1="-1.27" x2="13.335" y2="-1.27" width="0.2032" layer="21"/>
<wire x1="9.525" y1="-1.27" x2="10.795" y2="-1.27" width="0.2032" layer="21"/>
<wire x1="6.985" y1="-1.27" x2="8.255" y2="-1.27" width="0.2032" layer="21"/>
<wire x1="4.445" y1="-1.27" x2="5.715" y2="-1.27" width="0.2032" layer="21"/>
<wire x1="1.905" y1="-1.27" x2="3.175" y2="-1.27" width="0.2032" layer="21"/>
<wire x1="-0.635" y1="-1.27" x2="0.635" y2="-1.27" width="0.2032" layer="21"/>
<pad name="1" x="0" y="0" drill="1.016" diameter="1.8796"/>
<pad name="2" x="0" y="2.54" drill="1.016" diameter="1.8796"/>
<pad name="3" x="2.54" y="0" drill="1.016" diameter="1.8796"/>
<pad name="4" x="2.54" y="2.54" drill="1.016" diameter="1.8796"/>
<pad name="5" x="5.08" y="0" drill="1.016" diameter="1.8796"/>
<pad name="6" x="5.08" y="2.54" drill="1.016" diameter="1.8796"/>
<pad name="7" x="7.62" y="0" drill="1.016" diameter="1.8796"/>
<pad name="8" x="7.62" y="2.54" drill="1.016" diameter="1.8796"/>
<pad name="9" x="10.16" y="0" drill="1.016" diameter="1.8796"/>
<pad name="10" x="10.16" y="2.54" drill="1.016" diameter="1.8796"/>
<pad name="11" x="12.7" y="0" drill="1.016" diameter="1.8796"/>
<pad name="12" x="12.7" y="2.54" drill="1.016" diameter="1.8796"/>
<pad name="13" x="15.24" y="0" drill="1.016" diameter="1.8796"/>
<pad name="14" x="15.24" y="2.54" drill="1.016" diameter="1.8796"/>
<pad name="15" x="17.78" y="0" drill="1.016" diameter="1.8796"/>
<pad name="16" x="17.78" y="2.54" drill="1.016" diameter="1.8796"/>
<rectangle x1="-0.254" y1="-0.254" x2="0.254" y2="0.254" layer="51"/>
<rectangle x1="-0.254" y1="2.286" x2="0.254" y2="2.794" layer="51"/>
<rectangle x1="2.286" y1="2.286" x2="2.794" y2="2.794" layer="51"/>
<rectangle x1="2.286" y1="-0.254" x2="2.794" y2="0.254" layer="51"/>
<rectangle x1="4.826" y1="2.286" x2="5.334" y2="2.794" layer="51"/>
<rectangle x1="4.826" y1="-0.254" x2="5.334" y2="0.254" layer="51"/>
<rectangle x1="7.366" y1="2.286" x2="7.874" y2="2.794" layer="51"/>
<rectangle x1="9.906" y1="2.286" x2="10.414" y2="2.794" layer="51"/>
<rectangle x1="12.446" y1="2.286" x2="12.954" y2="2.794" layer="51"/>
<rectangle x1="7.366" y1="-0.254" x2="7.874" y2="0.254" layer="51"/>
<rectangle x1="9.906" y1="-0.254" x2="10.414" y2="0.254" layer="51"/>
<rectangle x1="12.446" y1="-0.254" x2="12.954" y2="0.254" layer="51"/>
<rectangle x1="14.986" y1="2.286" x2="15.494" y2="2.794" layer="51"/>
<rectangle x1="14.986" y1="-0.254" x2="15.494" y2="0.254" layer="51"/>
<rectangle x1="17.526" y1="2.286" x2="18.034" y2="2.794" layer="51"/>
<rectangle x1="17.526" y1="-0.254" x2="18.034" y2="0.254" layer="51"/>
<wire x1="-1.27" y1="-0.635" x2="-0.635" y2="-1.27" width="0.2032" layer="21"/>
<wire x1="-1.27" y1="-0.635" x2="-1.27" y2="3.175" width="0.2032" layer="21"/>
<wire x1="-1.27" y1="3.175" x2="-0.635" y2="3.81" width="0.2032" layer="21"/>
<text x="-1.27" y="4.064" size="0.6096" layer="25" font="vector" ratio="20">&gt;NAME</text>
<text x="-1.27" y="-2.413" size="0.6096" layer="27" font="vector" ratio="20">&gt;VALUE</text>
<wire x1="-0.762" y1="-1.651" x2="0.635" y2="-1.651" width="0.2032" layer="21"/>
<wire x1="0.635" y1="-1.651" x2="-0.762" y2="-1.651" width="0.2032" layer="22"/>
</package>
</packages>
</library>
</libraries>
<attributes>
</attributes>
<variantdefs>
</variantdefs>
<classes>
<class number="0" name="default" width="0" drill="0">
</class>
</classes>
<designrules name="default">
<description language="de">&lt;b&gt;EAGLE Design Rules&lt;/b&gt;
&lt;p&gt;
Die Standard-Design-Rules sind so gewählt, dass sie für 
die meisten Anwendungen passen. Sollte ihre Platine 
besondere Anforderungen haben, treffen Sie die erforderlichen
Einstellungen hier und speichern die Design Rules unter 
einem neuen Namen ab.</description>
<description language="en">&lt;b&gt;EAGLE Design Rules&lt;/b&gt;
&lt;p&gt;
The default Design Rules have been set to cover
a wide range of applications. Your particular design
may have different requirements, so please make the
necessary adjustments and save your customized
design rules under a new name.</description>
<param name="layerSetup" value="(1*16)"/>
<param name="mtCopper" value="0.035mm 0.035mm 0.035mm 0.035mm 0.035mm 0.035mm 0.035mm 0.035mm 0.035mm 0.035mm 0.035mm 0.035mm 0.035mm 0.035mm 0.035mm 0.035mm"/>
<param name="mtIsolate" value="1.5mm 0.15mm 0.2mm 0.15mm 0.2mm 0.15mm 0.2mm 0.15mm 0.2mm 0.15mm 0.2mm 0.15mm 0.2mm 0.15mm 0.2mm"/>
<param name="mdWireWire" value="6mil"/>
<param name="mdWirePad" value="6mil"/>
<param name="mdWireVia" value="6mil"/>
<param name="mdPadPad" value="6mil"/>
<param name="mdPadVia" value="6mil"/>
<param name="mdViaVia" value="6mil"/>
<param name="mdSmdPad" value="6mil"/>
<param name="mdSmdVia" value="6mil"/>
<param name="mdSmdSmd" value="6mil"/>
<param name="mdViaViaSameLayer" value="6mil"/>
<param name="mnLayersViaInSmd" value="2"/>
<param name="mdCopperDimension" value="40mil"/>
<param name="mdDrill" value="6mil"/>
<param name="mdSmdStop" value="0mil"/>
<param name="msWidth" value="6mil"/>
<param name="msDrill" value="0.35mm"/>
<param name="msMicroVia" value="9.99mm"/>
<param name="msBlindViaRatio" value="0.5"/>
<param name="rvPadTop" value="0.25"/>
<param name="rvPadInner" value="0.25"/>
<param name="rvPadBottom" value="0.25"/>
<param name="rvViaOuter" value="0.25"/>
<param name="rvViaInner" value="0.25"/>
<param name="rvMicroViaOuter" value="0.25"/>
<param name="rvMicroViaInner" value="0.25"/>
<param name="rlMinPadTop" value="10mil"/>
<param name="rlMaxPadTop" value="20mil"/>
<param name="rlMinPadInner" value="10mil"/>
<param name="rlMaxPadInner" value="20mil"/>
<param name="rlMinPadBottom" value="10mil"/>
<param name="rlMaxPadBottom" value="20mil"/>
<param name="rlMinViaOuter" value="8mil"/>
<param name="rlMaxViaOuter" value="20mil"/>
<param name="rlMinViaInner" value="8mil"/>
<param name="rlMaxViaInner" value="20mil"/>
<param name="rlMinMicroViaOuter" value="4mil"/>
<param name="rlMaxMicroViaOuter" value="20mil"/>
<param name="rlMinMicroViaInner" value="4mil"/>
<param name="rlMaxMicroViaInner" value="20mil"/>
<param name="psTop" value="-1"/>
<param name="psBottom" value="-1"/>
<param name="psFirst" value="-1"/>
<param name="psElongationLong" value="100"/>
<param name="psElongationOffset" value="100"/>
<param name="mvStopFrame" value="1"/>
<param name="mvCreamFrame" value="0"/>
<param name="mlMinStopFrame" value="4mil"/>
<param name="mlMaxStopFrame" value="4mil"/>
<param name="mlMinCreamFrame" value="0mil"/>
<param name="mlMaxCreamFrame" value="0mil"/>
<param name="mlViaStopLimit" value="0mil"/>
<param name="srRoundness" value="0"/>
<param name="srMinRoundness" value="0mil"/>
<param name="srMaxRoundness" value="0mil"/>
<param name="slThermalIsolate" value="10mil"/>
<param name="slThermalsForVias" value="0"/>
<param name="dpMaxLengthDifference" value="10mm"/>
<param name="dpGapFactor" value="2.5"/>
<param name="checkGrid" value="0"/>
<param name="checkAngle" value="0"/>
<param name="checkFont" value="1"/>
<param name="checkRestrict" value="1"/>
<param name="useDiameter" value="13"/>
<param name="maxErrors" value="50"/>
</designrules>
<autorouter>
<pass name="Default">
<param name="RoutingGrid" value="50mil"/>
<param name="AutoGrid" value="1"/>
<param name="Efforts" value="0"/>
<param name="TopRouterVariant" value="1"/>
<param name="tpViaShape" value="round"/>
<param name="PrefDir.1" value="a"/>
<param name="PrefDir.2" value="0"/>
<param name="PrefDir.3" value="0"/>
<param name="PrefDir.4" value="0"/>
<param name="PrefDir.5" value="0"/>
<param name="PrefDir.6" value="0"/>
<param name="PrefDir.7" value="0"/>
<param name="PrefDir.8" value="0"/>
<param name="PrefDir.9" value="0"/>
<param name="PrefDir.10" value="0"/>
<param name="PrefDir.11" value="0"/>
<param name="PrefDir.12" value="0"/>
<param name="PrefDir.13" value="0"/>
<param name="PrefDir.14" value="0"/>
<param name="PrefDir.15" value="0"/>
<param name="PrefDir.16" value="a"/>
<param name="cfVia" value="8"/>
<param name="cfNonPref" value="5"/>
<param name="cfChangeDir" value="2"/>
<param name="cfOrthStep" value="2"/>
<param name="cfDiagStep" value="3"/>
<param name="cfExtdStep" value="0"/>
<param name="cfBonusStep" value="1"/>
<param name="cfMalusStep" value="1"/>
<param name="cfPadImpact" value="4"/>
<param name="cfSmdImpact" value="4"/>
<param name="cfBusImpact" value="0"/>
<param name="cfHugging" value="3"/>
<param name="cfAvoid" value="4"/>
<param name="cfPolygon" value="10"/>
<param name="cfBase.1" value="0"/>
<param name="cfBase.2" value="1"/>
<param name="cfBase.3" value="1"/>
<param name="cfBase.4" value="1"/>
<param name="cfBase.5" value="1"/>
<param name="cfBase.6" value="1"/>
<param name="cfBase.7" value="1"/>
<param name="cfBase.8" value="1"/>
<param name="cfBase.9" value="1"/>
<param name="cfBase.10" value="1"/>
<param name="cfBase.11" value="1"/>
<param name="cfBase.12" value="1"/>
<param name="cfBase.13" value="1"/>
<param name="cfBase.14" value="1"/>
<param name="cfBase.15" value="1"/>
<param name="cfBase.16" value="0"/>
<param name="mnVias" value="20"/>
<param name="mnSegments" value="9999"/>
<param name="mnExtdSteps" value="9999"/>
<param name="mnRipupLevel" value="10"/>
<param name="mnRipupSteps" value="100"/>
<param name="mnRipupTotal" value="100"/>
</pass>
<pass name="Follow-me" refer="Default" active="yes">
</pass>
<pass name="Busses" refer="Default" active="yes">
<param name="cfNonPref" value="4"/>
<param name="cfBusImpact" value="4"/>
<param name="cfHugging" value="0"/>
<param name="mnVias" value="0"/>
</pass>
<pass name="Route" refer="Default" active="yes">
</pass>
<pass name="Optimize1" refer="Default" active="yes">
<param name="cfVia" value="99"/>
<param name="cfExtdStep" value="10"/>
<param name="cfHugging" value="1"/>
<param name="mnExtdSteps" value="1"/>
<param name="mnRipupLevel" value="0"/>
</pass>
<pass name="Optimize2" refer="Optimize1" active="yes">
<param name="cfNonPref" value="0"/>
<param name="cfChangeDir" value="6"/>
<param name="cfExtdStep" value="0"/>
<param name="cfBonusStep" value="2"/>
<param name="cfMalusStep" value="2"/>
<param name="cfPadImpact" value="2"/>
<param name="cfSmdImpact" value="2"/>
<param name="cfHugging" value="0"/>
</pass>
<pass name="Optimize3" refer="Optimize2" active="yes">
<param name="cfChangeDir" value="8"/>
<param name="cfPadImpact" value="0"/>
<param name="cfSmdImpact" value="0"/>
</pass>
<pass name="Optimize4" refer="Optimize3" active="yes">
<param name="cfChangeDir" value="25"/>
</pass>
</autorouter>
<elements>
<element name="IC1" library="adafruit" package="SO28W" value="MCP23017SO" x="38.1" y="53.34" smashed="yes">
<attribute name="NAME" x="29.591" y="49.276" size="1.778" layer="25" ratio="10" rot="R90"/>
</element>
<element name="J1" library="SparkFun-Connectors" package="1X04" value="" x="48.641" y="91.059" rot="R270">
<attribute name="PROD_ID" value="CONN-09696" x="48.641" y="91.059" size="1.778" layer="27" rot="R270" display="off"/>
</element>
<element name="J2" library="SparkFun-Connectors" package="1X04" value="" x="48.641" y="69.596" rot="R270">
<attribute name="PROD_ID" value="CONN-09696" x="48.641" y="69.596" size="1.778" layer="27" rot="R270" display="off"/>
</element>
<element name="J3" library="SparkFun-Connectors" package="1X04" value="" x="48.641" y="45.085" rot="R270">
<attribute name="PROD_ID" value="CONN-09696" x="48.641" y="45.085" size="1.778" layer="27" rot="R270" display="off"/>
</element>
<element name="J4" library="SparkFun-Connectors" package="1X04" value="" x="48.641" y="26.035" rot="R270">
<attribute name="PROD_ID" value="CONN-09696" x="48.641" y="26.035" size="1.778" layer="27" rot="R270" display="off"/>
</element>
<element name="J5" library="SparkFun-Connectors" package="1X04" value="" x="48.641" y="10.287" rot="R270">
<attribute name="PROD_ID" value="CONN-09696" x="48.641" y="10.287" size="1.778" layer="27" rot="R270" display="off"/>
</element>
<element name="J7" library="SparkFun-Connectors" package="2X8" value="" x="26.67" y="2.54"/>
</elements>
<signals>
<signal name="BTN1">
<contactref element="J1" pad="4"/>
<contactref element="IC1" pad="25"/>
<wire x1="48.641" y1="83.439" x2="29.21" y2="64.008" width="0.1524" layer="1"/>
<wire x1="29.21" y1="64.008" x2="34.29" y2="58.12" width="0.1524" layer="1"/>
</signal>
<signal name="BTN2">
<contactref element="J1" pad="3"/>
<contactref element="IC1" pad="26"/>
<wire x1="48.641" y1="85.979" x2="27.94" y2="65.278" width="0.1524" layer="1"/>
<wire x1="27.94" y1="65.278" x2="33.02" y2="58.12" width="0.1524" layer="1"/>
</signal>
<signal name="BTN3">
<contactref element="J1" pad="2"/>
<contactref element="IC1" pad="27"/>
<wire x1="48.641" y1="88.519" x2="26.67" y2="66.548" width="0.1524" layer="1"/>
<wire x1="26.67" y1="66.548" x2="31.75" y2="58.12" width="0.1524" layer="1"/>
</signal>
<signal name="BTN4">
<contactref element="J1" pad="1"/>
<contactref element="IC1" pad="28"/>
<wire x1="48.641" y1="91.059" x2="25.4" y2="67.818" width="0.1524" layer="1"/>
<wire x1="25.4" y1="67.818" x2="30.48" y2="58.12" width="0.1524" layer="1"/>
</signal>
<signal name="BTN5">
<contactref element="J2" pad="4"/>
<contactref element="IC1" pad="21"/>
<wire x1="39.37" y1="58.12" x2="34.29" y2="59.69" width="0.1524" layer="1"/>
<wire x1="34.29" y1="59.69" x2="36.83" y2="62.23" width="0.1524" layer="1"/>
<wire x1="36.83" y1="62.23" x2="48.387" y2="62.23" width="0.1524" layer="1"/>
<wire x1="48.387" y1="62.23" x2="48.641" y2="61.976" width="0.1524" layer="1"/>
</signal>
<signal name="BTN6">
<contactref element="J2" pad="3"/>
<contactref element="IC1" pad="22"/>
<wire x1="48.387" y1="64.77" x2="48.641" y2="64.516" width="0.1524" layer="1"/>
<wire x1="48.641" y1="64.516" x2="37.084" y2="64.516" width="0.1524" layer="1"/>
<wire x1="37.084" y1="64.516" x2="33.02" y2="60.452" width="0.1524" layer="1"/>
<wire x1="33.02" y1="60.452" x2="38.1" y2="58.12" width="0.1524" layer="1"/>
</signal>
<signal name="BTN7">
<contactref element="J2" pad="2"/>
<wire x1="48.641" y1="67.056" x2="48.387" y2="67.31" width="0.1524" layer="16"/>
<contactref element="IC1" pad="23"/>
<wire x1="36.83" y1="58.12" x2="31.75" y2="60.96" width="0.1524" layer="1"/>
<wire x1="31.75" y1="60.96" x2="38.1" y2="67.31" width="0.1524" layer="1"/>
<wire x1="38.1" y1="67.31" x2="48.387" y2="67.31" width="0.1524" layer="1"/>
<wire x1="48.387" y1="67.31" x2="48.641" y2="67.056" width="0.1524" layer="1"/>
</signal>
<signal name="BTN8">
<contactref element="J2" pad="1"/>
<contactref element="IC1" pad="24"/>
<wire x1="35.56" y1="58.12" x2="30.48" y2="62.23" width="0.1524" layer="1"/>
<wire x1="30.48" y1="62.23" x2="38.1" y2="69.85" width="0.1524" layer="1"/>
<wire x1="38.1" y1="69.85" x2="48.387" y2="69.85" width="0.1524" layer="1"/>
<wire x1="48.387" y1="69.85" x2="48.641" y2="69.596" width="0.1524" layer="1"/>
</signal>
<signal name="BTN9">
<contactref element="J3" pad="4"/>
<contactref element="IC1" pad="5"/>
<wire x1="48.641" y1="37.465" x2="40.2542" y2="37.465" width="0.1524" layer="1"/>
<wire x1="40.2542" y1="37.465" x2="30.48" y2="47.2392" width="0.1524" layer="1"/>
<wire x1="30.48" y1="47.2392" x2="35.56" y2="48.56" width="0.1524" layer="1"/>
</signal>
<signal name="BTN10">
<contactref element="J3" pad="3"/>
<contactref element="IC1" pad="6"/>
<wire x1="48.641" y1="40.005" x2="38.9842" y2="40.005" width="0.1524" layer="1"/>
<wire x1="38.9842" y1="40.005" x2="31.75" y2="47.2392" width="0.1524" layer="1"/>
<wire x1="31.75" y1="47.2392" x2="36.83" y2="48.56" width="0.1524" layer="1"/>
</signal>
<signal name="BTN11">
<contactref element="J3" pad="2"/>
<contactref element="IC1" pad="7"/>
<wire x1="48.641" y1="42.545" x2="37.7142" y2="42.545" width="0.1524" layer="1"/>
<wire x1="37.7142" y1="42.545" x2="33.02" y2="47.2392" width="0.1524" layer="1"/>
<wire x1="33.02" y1="47.2392" x2="38.1" y2="48.56" width="0.1524" layer="1"/>
</signal>
<signal name="BTN12">
<contactref element="J3" pad="1"/>
<contactref element="IC1" pad="8"/>
<wire x1="48.641" y1="45.085" x2="36.4442" y2="45.085" width="0.1524" layer="1"/>
<wire x1="36.4442" y1="45.085" x2="34.29" y2="47.2392" width="0.1524" layer="1"/>
<wire x1="34.29" y1="47.2392" x2="39.37" y2="48.56" width="0.1524" layer="1"/>
</signal>
<signal name="BTN13">
<contactref element="J4" pad="4"/>
<contactref element="IC1" pad="1"/>
<wire x1="48.641" y1="18.415" x2="25.4" y2="41.656" width="0.1524" layer="1"/>
<wire x1="25.4" y1="41.656" x2="30.48" y2="48.56" width="0.1524" layer="1"/>
</signal>
<signal name="BTN14">
<contactref element="J4" pad="3"/>
<contactref element="IC1" pad="2"/>
<wire x1="48.641" y1="20.955" x2="26.67" y2="42.926" width="0.1524" layer="1"/>
<wire x1="26.67" y1="42.926" x2="31.75" y2="48.56" width="0.1524" layer="1"/>
</signal>
<signal name="BTN15">
<contactref element="J4" pad="2"/>
<contactref element="IC1" pad="3"/>
<wire x1="48.641" y1="23.495" x2="27.94" y2="44.196" width="0.1524" layer="1"/>
<wire x1="27.94" y1="44.196" x2="33.02" y2="48.56" width="0.1524" layer="1"/>
</signal>
<signal name="BTN16">
<contactref element="J4" pad="1"/>
<contactref element="IC1" pad="4"/>
<wire x1="48.641" y1="26.035" x2="29.21" y2="45.466" width="0.1524" layer="1"/>
<wire x1="29.21" y1="45.466" x2="34.29" y2="48.56" width="0.1524" layer="1"/>
</signal>
<signal name="N$17">
<contactref element="J5" pad="4"/>
</signal>
<signal name="N$18">
<contactref element="J5" pad="3"/>
</signal>
<signal name="N$19">
<contactref element="J5" pad="2"/>
</signal>
<signal name="N$20">
<contactref element="J5" pad="1"/>
</signal>
<signal name="N$37">
<contactref element="IC1" pad="9"/>
</signal>
<signal name="N$38">
<contactref element="IC1" pad="18"/>
</signal>
<signal name="N$39">
<contactref element="IC1" pad="20"/>
<contactref element="IC1" pad="19"/>
<wire x1="41.91" y1="58.12" x2="40.64" y2="58.12" width="0" layer="19" extent="1-1"/>
</signal>
<signal name="N$41">
<contactref element="IC1" pad="12"/>
</signal>
<signal name="N$42">
<contactref element="IC1" pad="13"/>
</signal>
<signal name="N$43">
<contactref element="IC1" pad="15"/>
</signal>
<signal name="N$44">
<contactref element="IC1" pad="16"/>
</signal>
<signal name="N$45">
<contactref element="IC1" pad="17"/>
</signal>
<signal name="N$46">
<contactref element="IC1" pad="10"/>
</signal>
</signals>
</board>
</drawing>
</eagle>
